PCBNEW-LibModule-V1  mié 27 nov 2013 08:06:26 CET
# encoding utf-8
$INDEX
BUZZER
$EndINDEX
$MODULE BUZZER
Po 0 0 0 15 51F5757B 529599C1 ~~
Li BUZZER
Sc 529599C1
AR /51C9FB7B
Op 0 0 0
T0 39 -1024 600 600 0 120 N V 21 N "SP1"
T1 0 -2000 500 400 0 100 N V 21 N "SPEAKER"
DA 12 4 -1839 4 900 150 21
DA 12 16 20 -1846 900 150 21
$PAD
Sh "2" C 984 984 0 0 0
Dr 340 0 0
At STD N 00E0FFFF
Ne 2 "GND"
Po 984 0
$EndPAD
$PAD
Sh "1" C 984 984 0 0 0
Dr 340 0 0
At STD N 00E0FFFF
Ne 1 "/D8"
Po -984 0
$EndPAD
$SHAPE3D
Na "divers\\buzzer.wrl"
Sc 0.800000 0.800000 0.800000
Of 0.000000 0.000000 0.000000
Ro 0.000000 0.000000 0.000000
$EndSHAPE3D
$EndMODULE  BUZZER
$EndLIBRARY
