PCBNEW-LibModule-V1  dom 15 jun 2014 13:59:53 CEST
# encoding utf-8
Units mm
$INDEX
JACK-3.5M
$EndINDEX
$MODULE JACK-3.5M
Po 0 0 0 15 539D8A8F 00000000 ~~
Li JACK-3.5M
Sc 0
AR 
Op 0 0 0
T0 0 -2.5 1.524 1.524 0 0.3048 N V 21 N "JACK-3.5M"
T1 -4.5 1.5 1.524 1.524 0 0.3048 N V 21 N "VAL**"
DS 12.1 3.3 14.4 3.3 0.381 21
DS 14.4 3.3 14.4 9 0.381 21
DS 14.4 9 12.1 9 0.381 21
DS 12.1 1.6 12.1 10.3 0.381 21
DS 12.1 10.3 12.1 10.4 0.381 21
DS 12.1 10.4 11.1 10.4 0.381 21
DS 11.1 12 11.1 10.4 0.381 21
DS 11.2 1.6 12.1 1.6 0.381 21
DS 11.2 0 11.2 1.6 0.381 21
DS 0 0 0 12 0.381 21
DS 0 12 11.1 12 0.381 21
DS 11.1 0 0 0 0.381 21
$PAD
Sh "" C 1.1 1.1 0 0 0
Dr 1.1 0 0
At HOLE N 00E0FFFF
Ne 0 ""
Po 2.6 6
$EndPAD
$PAD
Sh "" C 1.1 1.1 0 0 0
Dr 1.1 0 0
At HOLE N 00E0FFFF
Ne 0 ""
Po 7.6 0.9
$EndPAD
$PAD
Sh "" C 1.1 1.1 0 0 0
Dr 1.1 0 0
At HOLE N 00E0FFFF
Ne 0 ""
Po 10.1 0.9
$EndPAD
$PAD
Sh "" C 1.1 1.1 0 0 0
Dr 1.1 0 0
At HOLE N 00E0FFFF
Ne 0 ""
Po 7.6 10.9
$EndPAD
$PAD
Sh "" C 1.1 1.1 0 0 0
Dr 1.1 0 0
At HOLE N 00E0FFFF
Ne 0 ""
Po 10.1 10.9
$EndPAD
$PAD
Sh "1" O 1 2.1 0 0 0
Dr 0.5 0 0 O 0.5 1.4
At STD N 00E0FFFF
Ne 0 ""
Po 7.6 6
$EndPAD
$PAD
Sh "2" O 2.1 1 0 0 0
Dr 1.4 0 0 O 1.4 0.5
At STD N 00E0FFFF
Ne 0 ""
Po 2.6 1
$EndPAD
$PAD
Sh "2" O 2.1 1 0 0 0
Dr 1.4 0 0 O 1.4 0.5
At STD N 00E0FFFF
Ne 0 ""
Po 2.6 3.6
$EndPAD
$PAD
Sh "3" O 2.1 1 0 0 0
Dr 1.4 0 0 O 1.4 0.5
At STD N 00E0FFFF
Ne 0 ""
Po 2.6 8.4
$EndPAD
$PAD
Sh "3" O 2.1 1 0 0 0
Dr 1.4 0 0 O 1.4 0.5
At STD N 00E0FFFF
Ne 0 ""
Po 2.6 11.1
$EndPAD
$EndMODULE JACK-3.5M
$EndLIBRARY
